{
    "url": "https://api.github.com/repos/Warzone2100/warzone2100/releases/131984976",
    "assets_url": "https://api.github.com/repos/Warzone2100/warzone2100/releases/131984976/assets",
    "upload_url": "https://uploads.github.com/repos/Warzone2100/warzone2100/releases/131984976/assets{?name,label}",
    "html_url": "https://github.com/Warzone2100/warzone2100/releases/tag/4.4.2",
    "id": 131984976,
    "node_id": "RE_kwDOABCLFc4H3e5Q",
    "tag_name": "4.4.2",
    "target_commitish": "master",
    "name": "4.4.2",
    "draft": false,
    "prerelease": false,
    "created_at": "2023-11-29T20:08:47Z",
    "published_at": "2023-11-29T21:30:55Z",
    "assets": [
        {
            "url": "https://api.github.com/repos/Warzone2100/warzone2100/releases/assets/138089614",
            "id": 138089614,
            "node_id": "RA_kwDOABCLFc4IOxSO",
            "name": "warzone2100_linux_amd64.snap",
            "label": "",
            "content_type": "application/vnd.snap",
            "state": "uploaded",
            "size": 479502336,
            "created_at": "2023-11-29T20:30:20Z",
            "updated_at": "2023-11-29T20:30:30Z",
            "browser_download_url": "https://github.com/Warzone2100/warzone2100/releases/download/4.4.2/warzone2100_linux_amd64.snap",
            "sha256": "28ddf3825efc7ca61fb0880e636b65262fba31044b3b210c67ed1fef7c23b43b",
            "sha512": "571ce6952ccd33b96def375f4e05d13d952535ae9854de8b0da690fc5d25adb88e9a4b8867928f7e5550289ee9dd3a3c8f665fceb35e287c4c83121e2cb034f4",
            "blake2b": "d8b667578015b91f648f637ec7d67ce1e3c8f91ec8b966cc36ca86244f996ca853aa913040d7dddfa15e97e517096ee38022a3ca88d9efd49595330ee98b4cec"
        },
        {
            "url": "https://api.github.com/repos/Warzone2100/warzone2100/releases/assets/138092417",
            "id": 138092417,
            "node_id": "RA_kwDOABCLFc4IOx-B",
            "name": "warzone2100_linux_arm64.flatpak",
            "label": "",
            "content_type": "application/vnd.flatpak",
            "state": "uploaded",
            "size": 898604408,
            "created_at": "2023-11-29T20:50:54Z",
            "updated_at": "2023-11-29T20:51:21Z",
            "browser_download_url": "https://github.com/Warzone2100/warzone2100/releases/download/4.4.2/warzone2100_linux_arm64.flatpak",
            "sha256": "d2a6393d2262ffc1700b65c4f179cb079deb2e2cf137438780634afeea439c90",
            "sha512": "a61ea1c977ca592a1991e08e89c7af056e19358f9be39d0dc15c20eb6f42ce3049e0b3f0be79766cefbf474ca771d62e03ad2300c7214f0f61728f3fde955ade",
            "blake2b": "e269956e42d98b575551034effd9b6ccfd2a560dea6a0c0b514c49c899c6cb7bfcec5e3e452fefdd513bab4b3cb29accaced37fc4ee194dde1d6916d30d1e153"
        },
        {
            "url": "https://api.github.com/repos/Warzone2100/warzone2100/releases/assets/138092420",
            "id": 138092420,
            "node_id": "RA_kwDOABCLFc4IOx-E",
            "name": "warzone2100_linux_x86_64.flatpak",
            "label": "",
            "content_type": "application/vnd.flatpak",
            "state": "uploaded",
            "size": 899434520,
            "created_at": "2023-11-29T20:50:55Z",
            "updated_at": "2023-11-29T20:51:20Z",
            "browser_download_url": "https://github.com/Warzone2100/warzone2100/releases/download/4.4.2/warzone2100_linux_x86_64.flatpak",
            "sha256": "719295c662b0b6b9502887254d23b3b90527bded9de40677ff5dc9fb4cd981af",
            "sha512": "a813d19c3099c22447ec5bb44cfd6d4c50b51c3504f89cc15eecf2510bb235448c076512bfb8596d09e7bc9a63da3ca364b12d8fa313b8c785d603f21b6da177",
            "blake2b": "cc60e1551ba3307f017413ef24e784b24d7265219ff389367bf248637e251895a5c9ab05ce86b5d25f10fdf5f4280d6305c17f1d6b24b35321e26ee3b1505be7"
        },
        {
            "url": "https://api.github.com/repos/Warzone2100/warzone2100/releases/assets/138095840",
            "id": 138095840,
            "node_id": "RA_kwDOABCLFc4IOyzg",
            "name": "warzone2100_macOS_universal.zip",
            "label": "",
            "content_type": "application/zip",
            "state": "uploaded",
            "size": 1054216296,
            "created_at": "2023-11-29T21:21:21Z",
            "updated_at": "2023-11-29T21:23:21Z",
            "browser_download_url": "https://github.com/Warzone2100/warzone2100/releases/download/4.4.2/warzone2100_macOS_universal.zip",
            "sha256": "7cbf8c180a680a5aac2a3a8abfe9f311af4572055b88815e1a383ca66197e90d",
            "sha512": "41c3d9e0b6882034b4127b26834430ff1c7581cc79c5a42157afeb605844a8de14e43724e104d7a0d81301f22507baac65db94e8b7db1ca8ddf39334665422b9",
            "blake2b": "d6adcf362b1b8c5fe506b6b573ff181a6f3a86a4c82cda5027152af9f4b7ba0c745b635c2a25ba6c1550f8ecc25ece9ecc6e9729fcbadac2b1dfac1c4ef6f60e"
        },
        {
            "url": "https://api.github.com/repos/Warzone2100/warzone2100/releases/assets/138096463",
            "id": 138096463,
            "node_id": "RA_kwDOABCLFc4IOy9P",
            "name": "warzone2100_macOS_universal_novideos.zip",
            "label": "",
            "content_type": "application/zip",
            "state": "uploaded",
            "size": 482196453,
            "created_at": "2023-11-29T21:27:13Z",
            "updated_at": "2023-11-29T21:27:34Z",
            "browser_download_url": "https://github.com/Warzone2100/warzone2100/releases/download/4.4.2/warzone2100_macOS_universal_novideos.zip",
            "sha256": "3c3d9129113a4146b788c3e97f07bc910e401c6ffb05d5aded58f8fbcb947339",
            "sha512": "a1d48a05c9c02188093fb9f2814b1799f860d39e720175e1f41715cc5d6fc99d2a2c2529482d7772cc343662a6ced3223729a0e136e2755a07337ce9cd0873f7",
            "blake2b": "a49e459588c73eb611d99ffbc01d11d9b06cce858646cf1feef12c818e1c6dc3502f638316f07653f70e3c2e6310c4c8ef8263e5d72fd3d8422498a8f5b16cec"
        },
        {
            "url": "https://api.github.com/repos/Warzone2100/warzone2100/releases/assets/138089458",
            "id": 138089458,
            "node_id": "RA_kwDOABCLFc4IOxPy",
            "name": "warzone2100_src.tar.xz",
            "label": "",
            "content_type": "application/x-xz",
            "state": "uploaded",
            "size": 490182768,
            "created_at": "2023-11-29T20:28:44Z",
            "updated_at": "2023-11-29T20:28:53Z",
            "browser_download_url": "https://github.com/Warzone2100/warzone2100/releases/download/4.4.2/warzone2100_src.tar.xz",
            "sha256": "3b962ac6aa75bca62bf2ebc067549db08fe4a1c3b38342910a2ac2aaabcbacde",
            "sha512": "8edfae77853826fda4bafafc513d9c6d999861fc4a7f0cf22318df7ebf9df3d7f98c3859eec8e8eeb02f4243b7e2e152c8d46881f4f8d414787ef0d0735ea4e6",
            "blake2b": "4b8f6825072c8dd29e1d4699b21123ff015e87da9b4f5043e40398ec5ec41ba12d414bbb01dd616a9e7f74f45407341e87a071ef38eb7c191e3845016f8df330"
        },
        {
            "url": "https://api.github.com/repos/Warzone2100/warzone2100/releases/assets/138089293",
            "id": 138089293,
            "node_id": "RA_kwDOABCLFc4IOxNN",
            "name": "warzone2100_ubuntu20.04_amd64.deb",
            "label": "",
            "content_type": "application/x-debian-package",
            "state": "uploaded",
            "size": 445166012,
            "created_at": "2023-11-29T20:27:42Z",
            "updated_at": "2023-11-29T20:27:50Z",
            "browser_download_url": "https://github.com/Warzone2100/warzone2100/releases/download/4.4.2/warzone2100_ubuntu20.04_amd64.deb",
            "sha256": "b4e0e081a884f178ffd67cf1f7b5a3483ba036d049ec0fedd20bdd9897131e67",
            "sha512": "309529a4de62a86f9a172737e67c31fd8fe660457a13c92cf2b6a033266bf78358fdb836be228700d65c0460743c38e0d349a2157fa88202ef9bc5fb4ed1d19c",
            "blake2b": "b25df9559e4b9b4c8443cedaf1d0b9d79ab535a6f86f53068c7236392da234815957695b4b8c3752b69b69f82fdf7ad63ed58d3aa462ecf054feb381314d6e73"
        },
        {
            "url": "https://api.github.com/repos/Warzone2100/warzone2100/releases/assets/138089014",
            "id": 138089014,
            "node_id": "RA_kwDOABCLFc4IOxI2",
            "name": "warzone2100_ubuntu22.04_amd64.deb",
            "label": "",
            "content_type": "application/x-debian-package",
            "state": "uploaded",
            "size": 440368156,
            "created_at": "2023-11-29T20:25:50Z",
            "updated_at": "2023-11-29T20:25:59Z",
            "browser_download_url": "https://github.com/Warzone2100/warzone2100/releases/download/4.4.2/warzone2100_ubuntu22.04_amd64.deb",
            "sha256": "759ed72f9bf6d08d78b264a6bece423d288f7f4c92dcb602c2d4bdd26ed28df6",
            "sha512": "3ab3302a18fd63e1183813ad8423a42a1ebfd63201d37bc1940b9d9f29d99f475754cc5a831709d1ec562fc5988cc1e44a5f3349131555ef9be811550adcc750",
            "blake2b": "17c3c0bc9caf4b99dc71c89ee7969a74acecb5243b371722ad663dbc0bd35161699bcc471566aa502fe27b74d06a08fa22ff330167ba28d09ad1ee3d18ead862"
        },
        {
            "url": "https://api.github.com/repos/Warzone2100/warzone2100/releases/assets/138093695",
            "id": 138093695,
            "node_id": "RA_kwDOABCLFc4IOyR_",
            "name": "warzone2100_win_arm64.DEBUGSYMBOLS.7z",
            "label": "",
            "content_type": "application/octet-stream",
            "state": "uploaded",
            "size": 32128882,
            "created_at": "2023-11-29T21:02:42Z",
            "updated_at": "2023-11-29T21:02:45Z",
            "browser_download_url": "https://github.com/Warzone2100/warzone2100/releases/download/4.4.2/warzone2100_win_arm64.DEBUGSYMBOLS.7z",
            "sha256": "3913c039bcebaa57fd3b99c6e714a5808f93f6027eefe669e5070de45da688e0",
            "sha512": "0576f0569afc3f24d54e9867d1fae126e6aefa62a0bd799f9a7b717207450aa675f0d3d5ac059437612420d864c126b2dc2c479a4bc35351996c95713a41df71",
            "blake2b": "c70732a03554ccd95baa1def5fb98f5cb189efadc787be1df8648b40bf66bd386b2b13bee663fde9c8d541c1af012d67733a7a3b21a3a8ff6094274e93ebc24c"
        },
        {
            "url": "https://api.github.com/repos/Warzone2100/warzone2100/releases/assets/138093696",
            "id": 138093696,
            "node_id": "RA_kwDOABCLFc4IOySA",
            "name": "warzone2100_win_arm64_archive.zip",
            "label": "",
            "content_type": "application/zip",
            "state": "uploaded",
            "size": 359088221,
            "created_at": "2023-11-29T21:02:42Z",
            "updated_at": "2023-11-29T21:03:23Z",
            "browser_download_url": "https://github.com/Warzone2100/warzone2100/releases/download/4.4.2/warzone2100_win_arm64_archive.zip",
            "sha256": "7588e3207ceeafbe9fcef136d5d2131413a78fa70a45136d9fd045da86a3cd00",
            "sha512": "3d1c5e28fe7774ebb61784bc5afe0db56895479d24a90d1894971bd44fb05f7312519367a9d1d6659f6610f1fcf4209b31b7c67d3931c65e092e9d9975b23756",
            "blake2b": "9aaf4893359ef13630a3b8bea9c9e5c4ce18e5a4bfe1d04134ae809000492d4816ad59c6bfcd268273d9997e42b79d4e03af977f8c64c30c76b5c4563bb623f1"
        },
        {
            "url": "https://api.github.com/repos/Warzone2100/warzone2100/releases/assets/138093697",
            "id": 138093697,
            "node_id": "RA_kwDOABCLFc4IOySB",
            "name": "warzone2100_win_arm64_installer.exe",
            "label": "",
            "content_type": "application/x-msdownload",
            "state": "uploaded",
            "size": 343202050,
            "created_at": "2023-11-29T21:02:42Z",
            "updated_at": "2023-11-29T21:03:23Z",
            "browser_download_url": "https://github.com/Warzone2100/warzone2100/releases/download/4.4.2/warzone2100_win_arm64_installer.exe",
            "sha256": "0f17b8fb5302b85947b126b04752b9a8d870083016c89108fc0fdf8af867142f",
            "sha512": "ab10ac89ac1cb5f2ef874e0ea1e1e8230f04168d703c5617a9bed63d8d9bc669a1dfa7ba692ad7a24cce30a96030165c2993b69ff72339413d5aa5fee80733f2",
            "blake2b": "95e804a77974c16aed59414fce2e55c33f0c8de121d5f42a1d3409df5e545b7ab53b44524959bf5a0c4e28348d8e559b876d92ec23c08a3973ae56720f3e3b08"
        },
        {
            "url": "https://api.github.com/repos/Warzone2100/warzone2100/releases/assets/138093694",
            "id": 138093694,
            "node_id": "RA_kwDOABCLFc4IOyR-",
            "name": "warzone2100_win_arm64_portable.exe",
            "label": "",
            "content_type": "application/x-msdownload",
            "state": "uploaded",
            "size": 342862402,
            "created_at": "2023-11-29T21:02:42Z",
            "updated_at": "2023-11-29T21:03:23Z",
            "browser_download_url": "https://github.com/Warzone2100/warzone2100/releases/download/4.4.2/warzone2100_win_arm64_portable.exe",
            "sha256": "cba852a7880d155ad52bf08259a1471eec649c1a4c5c618b66abd3986f5cdada",
            "sha512": "15c92475965f9fb3271dbef6c0209501f069ecde656ed6faee974f0ddd2de20afddc108bee3595ca6f457278d32f617a09d46d126ca899dc6c4b58afde868c63",
            "blake2b": "0c8207f58ac2a53574d3fb058413c89a3bc86aa3cb331562cd7a6260db4a0a761fa294ae5d0dab806f35a52da6bc0f030ed6b720e3e13eb36013f8d56199a9f0"
        },
        {
            "url": "https://api.github.com/repos/Warzone2100/warzone2100/releases/assets/138094480",
            "id": 138094480,
            "node_id": "RA_kwDOABCLFc4IOyeQ",
            "name": "warzone2100_win_x64.DEBUGSYMBOLS.7z",
            "label": "",
            "content_type": "application/octet-stream",
            "state": "uploaded",
            "size": 33299646,
            "created_at": "2023-11-29T21:09:05Z",
            "updated_at": "2023-11-29T21:09:08Z",
            "browser_download_url": "https://github.com/Warzone2100/warzone2100/releases/download/4.4.2/warzone2100_win_x64.DEBUGSYMBOLS.7z",
            "sha256": "ee438a7dc7ad8b8cc3742b7eb2a77cfaec7525369bf046f6d913d0438b02eed7",
            "sha512": "aff8c8ec565f2ceb193fc59871ecda5b58861dd91efe41ea8fabb3b0c276efac1e5c8e7942cdd7bedbeccefa8a7cd5dba1fb1b50e59df0112c13a1d001181133",
            "blake2b": "d44aafbaf657c1d013488d734ac5b84ea25eded00e58f17672d0c8be13d52e2070a63811d6453d1c02432f840fa33393342299c2e992392ced45d59feeb91d71"
        },
        {
            "url": "https://api.github.com/repos/Warzone2100/warzone2100/releases/assets/138094478",
            "id": 138094478,
            "node_id": "RA_kwDOABCLFc4IOyeO",
            "name": "warzone2100_win_x64_archive.zip",
            "label": "",
            "content_type": "application/zip",
            "state": "uploaded",
            "size": 360395469,
            "created_at": "2023-11-29T21:09:05Z",
            "updated_at": "2023-11-29T21:09:24Z",
            "browser_download_url": "https://github.com/Warzone2100/warzone2100/releases/download/4.4.2/warzone2100_win_x64_archive.zip",
            "sha256": "91ead0b01c2150a673e516ffb6e8ab057609f9b37a01013d3dd2fbfc392a081f",
            "sha512": "2437716ee959144f3e05315208f314df193082a9388e6e409b1c027da3481501075beb58ad3ebbbb98597e57db10bb37b0601382bde756b610a94e756cfbc7ef",
            "blake2b": "8bedd91f87a95bf55077f95db246bf6bfe5a9f52e505adc08bebbbed29d998747c68a765e98cceb814dfa9de41c4fed8656d1adf52a185334c524e3b89ede178"
        },
        {
            "url": "https://api.github.com/repos/Warzone2100/warzone2100/releases/assets/138094479",
            "id": 138094479,
            "node_id": "RA_kwDOABCLFc4IOyeP",
            "name": "warzone2100_win_x64_installer.exe",
            "label": "",
            "content_type": "application/x-msdownload",
            "state": "uploaded",
            "size": 344698222,
            "created_at": "2023-11-29T21:09:05Z",
            "updated_at": "2023-11-29T21:09:27Z",
            "browser_download_url": "https://github.com/Warzone2100/warzone2100/releases/download/4.4.2/warzone2100_win_x64_installer.exe",
            "sha256": "d9ae3823f7074c4d50f6482b04adbfae3dd61efbe4d0b48a4eac4a3e7a63c710",
            "sha512": "4611af72f2232e12a9f5c260bee05e0d25f0799eadf0cfd7c6f0449453a9fab8932c4cb3ca9afe9b833cc132a000ff155cd1d0fc9cdbadb39fcbcd2b353d920f",
            "blake2b": "c1c35c6641d19ea58ebfa3b0a9372da676bfabb2e9b5289ec5d687220afa62ece684627bf1aae81ca9ad10765565b4bf8ea1371af46e99fa457fd880f5dd9b0a"
        },
        {
            "url": "https://api.github.com/repos/Warzone2100/warzone2100/releases/assets/138094483",
            "id": 138094483,
            "node_id": "RA_kwDOABCLFc4IOyeT",
            "name": "warzone2100_win_x64_portable.exe",
            "label": "",
            "content_type": "application/x-msdownload",
            "state": "uploaded",
            "size": 344358597,
            "created_at": "2023-11-29T21:09:05Z",
            "updated_at": "2023-11-29T21:09:24Z",
            "browser_download_url": "https://github.com/Warzone2100/warzone2100/releases/download/4.4.2/warzone2100_win_x64_portable.exe",
            "sha256": "35d56ccbd06c654b5a0a1654daf48973f1fae2f8de541c31e25c474257031035",
            "sha512": "0b214a391e747f4a95529631d6ed291e46f5c17de2ffebe8de6784233be3374308b5b2c1e0ba40d16aac085a979edb4481502271f713f56c9d84ee114cafc9e0",
            "blake2b": "1ade1658b99ddd5dd762ae1909847aac81404975bb3abcb8d62435d8f7fde6722c75d09548edfe3918cc9ece3c995407fc1611727c5b3208120416e0985581b7"
        },
        {
            "url": "https://api.github.com/repos/Warzone2100/warzone2100/releases/assets/138093798",
            "id": 138093798,
            "node_id": "RA_kwDOABCLFc4IOyTm",
            "name": "warzone2100_win_x86.DEBUGSYMBOLS.7z",
            "label": "",
            "content_type": "application/octet-stream",
            "state": "uploaded",
            "size": 33776198,
            "created_at": "2023-11-29T21:03:31Z",
            "updated_at": "2023-11-29T21:03:34Z",
            "browser_download_url": "https://github.com/Warzone2100/warzone2100/releases/download/4.4.2/warzone2100_win_x86.DEBUGSYMBOLS.7z",
            "sha256": "9c56475e34479e29089556e243041620d4828e929c981fc617a34ee4b020a011",
            "sha512": "e30b4d8530db71850295af4ca43804bbfd25de5f61ee97d008759d4efb948a70ed481d0fd181fafed47aecfd6cd7e870ce9cf362538c5c75383e8cec74bea0e5",
            "blake2b": "aabc50158292704a202495abf7e19830efd9afee44cc7c72ca0c6b258ed559cda986470f97ec8bb18d1d60ddef38fb23e54d24de058b478080e99f9c51e8e532"
        },
        {
            "url": "https://api.github.com/repos/Warzone2100/warzone2100/releases/assets/138093799",
            "id": 138093799,
            "node_id": "RA_kwDOABCLFc4IOyTn",
            "name": "warzone2100_win_x86_archive.zip",
            "label": "",
            "content_type": "application/zip",
            "state": "uploaded",
            "size": 360799937,
            "created_at": "2023-11-29T21:03:31Z",
            "updated_at": "2023-11-29T21:03:51Z",
            "browser_download_url": "https://github.com/Warzone2100/warzone2100/releases/download/4.4.2/warzone2100_win_x86_archive.zip",
            "sha256": "938ddc0388e4c693bd06a8f0b4ea885a6b7e5a72695d68874c89fb608f33a266",
            "sha512": "b08a7a163ef879cf4aa8fad3ce2536f1a3ebc8ba6559448d5fa8bb1606d2a9f8b08cbfcf3483c316cc0d9c19d616a4de6e5433f169e5eb8901cf377772d8ffae",
            "blake2b": "e5c0d8b2be92a2bfa491356dca7ad3f66684f96febdbdc5ad5074ac5ac59667ea8de1bf702adc5189071eded5921002fe1b47f26375925da4bae373fbc8fa339"
        },
        {
            "url": "https://api.github.com/repos/Warzone2100/warzone2100/releases/assets/138093796",
            "id": 138093796,
            "node_id": "RA_kwDOABCLFc4IOyTk",
            "name": "warzone2100_win_x86_installer.exe",
            "label": "",
            "content_type": "application/x-msdownload",
            "state": "uploaded",
            "size": 345076217,
            "created_at": "2023-11-29T21:03:31Z",
            "updated_at": "2023-11-29T21:03:51Z",
            "browser_download_url": "https://github.com/Warzone2100/warzone2100/releases/download/4.4.2/warzone2100_win_x86_installer.exe",
            "sha256": "ded03ddf369f60077f81afd9d71df60243441b161722f4f8046de40f9f047d06",
            "sha512": "66d43f9d8a3a4ddeed58af42e3e4d8db5fe937dbbaa52dc9b69de37a9af36115b028d2f9851c7c281675e9843ae2008807654927df796e7f8ca4729615e54f76",
            "blake2b": "aa2e7aaf5ed099ae5c786c94f584881a00170aea2431d51b2ecaaf284901598b31432aabb696d7cd3c598ca612d6ed301459233adce2cef305305ac12fa80d54"
        },
        {
            "url": "https://api.github.com/repos/Warzone2100/warzone2100/releases/assets/138093797",
            "id": 138093797,
            "node_id": "RA_kwDOABCLFc4IOyTl",
            "name": "warzone2100_win_x86_portable.exe",
            "label": "",
            "content_type": "application/x-msdownload",
            "state": "uploaded",
            "size": 344736431,
            "created_at": "2023-11-29T21:03:31Z",
            "updated_at": "2023-11-29T21:03:51Z",
            "browser_download_url": "https://github.com/Warzone2100/warzone2100/releases/download/4.4.2/warzone2100_win_x86_portable.exe",
            "sha256": "350dfb080d04fe2f89420fcf40da5c7adda65d389ee5c2dd71e4a166b97b2c2f",
            "sha512": "e21780c44c677cdcc3eb586919a95c931d38dbd4444f11387541dad80a4f105642baaad8d16d29ede12ab43070fe8add7fcce01ab4fb58ff6509d8af21e5aa7a",
            "blake2b": "594408daef744adca2ceaaeffebc7fe028a35e451e9478875e290f81528b7eb6192405b2f0e3f9013084910d0625d83ae1be3be26dd0d1e65996c15a2efd028e"
        }
    ],
    "tarball_url": "https://api.github.com/repos/Warzone2100/warzone2100/tarball/4.4.2",
    "zipball_url": "https://api.github.com/repos/Warzone2100/warzone2100/zipball/4.4.2",
    "body": "`warzone2100_win_(arch)_installer.exe` -- The main Windows build (full installer)\r\n`warzone2100_win_(arch)_portable.exe` -- The portable version of the Windows build (self contained -- install it anywhere!)\r\n`warzone2100_macOS_universal.zip`  -- For macOS (10.10+)\r\n`warzone2100_ubuntu20.04_amd64.deb` -- For Ubuntu 20.04\r\n`warzone2100_ubuntu22.04_amd64.deb` -- For Ubuntu 22.04\r\n`warzone2100_src.tar.xz` -- The tarball for Linux / BSD / whatever systems. (full source / data)\r\n\r\n**IMPORTANT: To build from source, use the warzone2100_src.tar.xz tarball.**\r\n> The auto-generated GitHub \"_Source code (zip) / (tar.gz)_\" links do **_not_** include the Git-based autorevision information.\r\n\r\nTo install the .deb files, use `sudo apt install`. Example:\r\n`sudo apt install ./warzone2100_ubuntu20.04_amd64.deb`\r\n",
    "discussion_url": "https://github.com/Warzone2100/warzone2100/discussions/3549",
    "reactions": {
        "url": "https://api.github.com/repos/Warzone2100/warzone2100/releases/131984976/reactions",
        "total_count": 26,
        "+1": 20,
        "-1": 0,
        "laugh": 0,
        "hooray": 6,
        "confused": 0,
        "heart": 0,
        "rocket": 0,
        "eyes": 0
    }
}